{
  "type": "tab",
  "id": "97e163f0.681ea",
  "label": "Sheet 1",
  "flow": [
    {
      "id": "364d10f3.c9b2f",
      "type": "http in",
      "z": "97e163f0.681ea",
      "name": "test",
      "url": "/test",
      "method": "get",
      "swaggerDoc": "",
      "x": 133,
      "y": 132,
      "wires": [
        [
          "c9d3143c.362ce8"
        ]
      ]
    },
    {
      "id": "c9d3143c.362ce8",
      "type": "http response",
      "z": "97e163f0.681ea",
      "name": "output",
      "x": 432,
      "y": 132,
      "wires": []
    }
  ]
}